
digraph nextflow_project {

    graph[rankdir="RL"];
    node[shape="rectangle"];
    edge[dir="none"];

    "./whatever_files"[fillcolor=pink,style="filled"];
    "./whatever_files" -> "./";
    "./work" -> "./";
    "./.nextflow" -> "./";
    "./.nextflow.log" -> "./";

    "./work/f5/1848f8..." -> "./work";
    "./work/bf/0ac827..." -> "./work";
    }
