<?xml version="1.0" encoding="UTF-8" standalone="no"?>
<!DOCTYPE svg PUBLIC "-//W3C//DTD SVG 1.1//EN"
 "http://www.w3.org/Graphics/SVG/1.1/DTD/svg11.dtd">
<!-- Generated by graphviz version 2.40.1 (20161225.0304)
 -->
<!-- Title: nextflow_project Pages: 1 -->
<svg width="359pt" height="206pt"
 viewBox="0.00 0.00 359.00 206.00" xmlns="http://www.w3.org/2000/svg" xmlns:xlink="http://www.w3.org/1999/xlink">
<g id="graph0" class="graph" transform="scale(1 1) rotate(0) translate(4 202)">
<title>nextflow_project</title>
<polygon fill="#ffffff" stroke="transparent" points="-4,4 -4,-202 355,-202 355,4 -4,4"/>
<!-- ./whatever_files -->
<g id="node1" class="node">
<title>./whatever_files</title>
<polygon fill="#ffc0cb" stroke="#000000" points="194,-198 90,-198 90,-162 194,-162 194,-198"/>
<text text-anchor="middle" x="142" y="-176.3" font-family="Times,serif" font-size="14.00" fill="#000000">./whatever_files</text>
</g>
<!-- ./ -->
<g id="node2" class="node">
<title>./</title>
<polygon fill="none" stroke="#000000" points="54,-117 0,-117 0,-81 54,-81 54,-117"/>
<text text-anchor="middle" x="27" y="-95.3" font-family="Times,serif" font-size="14.00" fill="#000000">./</text>
</g>
<!-- ./whatever_files&#45;&gt;./ -->
<g id="edge1" class="edge">
<title>./whatever_files&#45;&gt;./</title>
<path fill="none" stroke="#000000" d="M104.7452,-161.9923C99.6819,-159.1616 94.6371,-156.1302 90,-153 74.2394,-142.3611 57.9822,-128.3367 45.9307,-117.2465"/>
</g>
<!-- ./work -->
<g id="node3" class="node">
<title>./work</title>
<polygon fill="none" stroke="#000000" points="169,-144 115,-144 115,-108 169,-108 169,-144"/>
<text text-anchor="middle" x="142" y="-122.3" font-family="Times,serif" font-size="14.00" fill="#000000">./work</text>
</g>
<!-- ./work&#45;&gt;./ -->
<g id="edge2" class="edge">
<title>./work&#45;&gt;./</title>
<path fill="none" stroke="#000000" d="M114.7466,-119.6014C96.4147,-115.2974 72.3487,-109.6471 54.0578,-105.3527"/>
</g>
<!-- ./.nextflow -->
<g id="node4" class="node">
<title>./.nextflow</title>
<polygon fill="none" stroke="#000000" points="180,-90 104,-90 104,-54 180,-54 180,-90"/>
<text text-anchor="middle" x="142" y="-68.3" font-family="Times,serif" font-size="14.00" fill="#000000">./.nextflow</text>
</g>
<!-- ./.nextflow&#45;&gt;./ -->
<g id="edge3" class="edge">
<title>./.nextflow&#45;&gt;./</title>
<path fill="none" stroke="#000000" d="M103.7067,-80.9906C87.5026,-84.795 68.9994,-89.1393 54.2261,-92.6078"/>
</g>
<!-- ./.nextflow.log -->
<g id="node5" class="node">
<title>./.nextflow.log</title>
<polygon fill="none" stroke="#000000" points="190.5,-36 93.5,-36 93.5,0 190.5,0 190.5,-36"/>
<text text-anchor="middle" x="142" y="-14.3" font-family="Times,serif" font-size="14.00" fill="#000000">./.nextflow.log</text>
</g>
<!-- ./.nextflow.log&#45;&gt;./ -->
<g id="edge4" class="edge">
<title>./.nextflow.log&#45;&gt;./</title>
<path fill="none" stroke="#000000" d="M104.7452,-36.0077C99.6819,-38.8384 94.6371,-41.8698 90,-45 74.2394,-55.6389 57.9822,-69.6633 45.9307,-80.7535"/>
</g>
<!-- ./work/f5/1848f8... -->
<g id="node6" class="node">
<title>./work/f5/1848f8...</title>
<polygon fill="none" stroke="#000000" points="350.5,-171 230.5,-171 230.5,-135 350.5,-135 350.5,-171"/>
<text text-anchor="middle" x="290.5" y="-149.3" font-family="Times,serif" font-size="14.00" fill="#000000">./work/f5/1848f8...</text>
</g>
<!-- ./work/f5/1848f8...&#45;&gt;./work -->
<g id="edge5" class="edge">
<title>./work/f5/1848f8...&#45;&gt;./work</title>
<path fill="none" stroke="#000000" d="M230.0994,-142.0181C208.9005,-138.1637 186.14,-134.0255 169.0645,-130.9208"/>
</g>
<!-- ./work/bf/0ac827... -->
<g id="node7" class="node">
<title>./work/bf/0ac827...</title>
<polygon fill="none" stroke="#000000" points="351,-117 230,-117 230,-81 351,-81 351,-117"/>
<text text-anchor="middle" x="290.5" y="-95.3" font-family="Times,serif" font-size="14.00" fill="#000000">./work/bf/0ac827...</text>
</g>
<!-- ./work/bf/0ac827...&#45;&gt;./work -->
<g id="edge6" class="edge">
<title>./work/bf/0ac827...&#45;&gt;./work</title>
<path fill="none" stroke="#000000" d="M229.6709,-110.0598C208.6852,-113.8754 186.2199,-117.96 169.2845,-121.0392"/>
</g>
</g>
</svg>
